Processor/rng_tb.vcd
$date
	Sun Dec  3 15:31:54 2023
$end
$version
	Icarus Verilog
$end
$timescale
	1ps
$end
$scope module rng_tb $end
$var wire 3 ! random_number [2:0] $end
$var reg 1 " clear $end
$var reg 1 # clock $end
$var integer 32 $ i [31:0] $end
$scope module generator $end
$var wire 1 # clk $end
$var wire 1 % f $end
$var wire 3 & rand [2:0] $end
$var wire 1 " reset $end
$var wire 3 ' Q [2:0] $end
$scope module first_dff $end
$var wire 1 # clk $end
$var wire 1 " clr $end
$var wire 1 % d $end
$var wire 1 ( en $end
$var reg 1 ) q $end
$upscope $end
$scope module second_dff $end
$var wire 1 # clk $end
$var wire 1 " clr $end
$var wire 1 * d $end
$var wire 1 + en $end
$var reg 1 , q $end
$upscope $end
$scope module third_dff $end
$var wire 1 # clk $end
$var wire 1 " clr $end
$var wire 1 - d $end
$var wire 1 . en $end
$var reg 1 / q $end
$upscope $end
$upscope $end
$upscope $end
$enddefinitions $end
$comment Show the parameter values. $end
$dumpall
$end
#0
$dumpvars
0/
1.
0-
0,
1+
0*
0)
1(
b0 '
b0 &
1%
b1 $
0#
0"
b0 !
$end
#10000
0%
1*
b1 !
b1 &
b1 '
1)
1#
#20000
0#
b10 $
#30000
1%
1-
0*
1,
b10 !
b10 &
b10 '
0)
1#
#40000
0#
b11 $
#50000
1*
0-
1)
0,
b101 !
b101 &
b101 '
1/
1#
#60000
0#
b100 $
#70000
0%
1-
0/
b11 !
b11 &
b11 '
1,
1#
#80000
0#
b101 $
#90000
0*
0)
b110 !
b110 &
b110 '
1/
1#
#100000
0#
b110 $
#110000
0-
b100 !
b100 &
b100 '
0,
1#
#120000
0#
b111 $
#130000
1%
b0 !
b0 &
b0 '
0/
1#
#140000
0#
b1000 $
#150000
0%
1*
b1 !
b1 &
b1 '
1)
1#
#160000
0#
b1001 $
#170000
1%
0*
1-
0)
b10 !
b10 &
b10 '
1,
1#
#180000
0#
b1010 $
#190000
0-
1*
1/
0,
b101 !
b101 &
b101 '
1)
1#
#200000
0#
b1011 $
#210000
0%
1-
1,
b11 !
b11 &
b11 '
0/
1#
#220000
0#
b1100 $
#230000
0*
1/
b110 !
b110 &
b110 '
0)
1#
#240000
0#
b1101 $
#250000
0-
b100 !
b100 &
b100 '
0,
1#
#260000
0#
b1110 $
#270000
1%
b0 !
b0 &
b0 '
0/
1#
#280000
0#
b1111 $
#290000
0%
1*
b1 !
b1 &
b1 '
1)
1#
#300000
0#
b10000 $
#310000
1%
1-
0*
1,
b10 !
b10 &
b10 '
0)
1#
#320000
0#
b10001 $
#330000
1*
0-
1)
0,
b101 !
b101 &
b101 '
1/
1#
#340000
0#
b10010 $
#350000
0%
1-
0/
b11 !
b11 &
b11 '
1,
1#
#360000
0#
b10011 $
#370000
0*
0)
b110 !
b110 &
b110 '
1/
1#
#380000
0#
b10100 $
#390000
0-
b100 !
b100 &
b100 '
0,
1#
#400000
0#
b10101 $
#410000
1%
b0 !
b0 &
b0 '
0/
1#
#420000
0#
b10110 $
#430000
0%
1*
b1 !
b1 &
b1 '
1)
1#
#440000
0#
b10111 $
#450000
1%
0*
1-
0)
b10 !
b10 &
b10 '
1,
1#
#460000
0#
b11000 $
#470000
0-
1*
1/
0,
b101 !
b101 &
b101 '
1)
1#
#480000
0#
b11001 $
#490000
0%
1-
1,
b11 !
b11 &
b11 '
0/
1#
#500000
0#
b11010 $
#510000
0*
1/
b110 !
b110 &
b110 '
0)
1#
#520000
0#
b11011 $
#530000
0-
b100 !
b100 &
b100 '
0,
1#
#540000
0#
b11100 $
#550000
1%
b0 !
b0 &
b0 '
0/
1#
#560000
0#
b11101 $
#570000
0%
1*
b1 !
b1 &
b1 '
1)
1#
#580000
0#
b11110 $
#590000
1%
1-
0*
1,
b10 !
b10 &
b10 '
0)
1#
#600000
0#
b11111 $
#610000
1*
0-
1)
0,
b101 !
b101 &
b101 '
1/
1#
#620000
0#
b100000 $
#630000
0%
1-
0/
b11 !
b11 &
b11 '
1,
1#
#640000
0#
b100001 $
#650000
0*
0)
b110 !
b110 &
b110 '
1/
1#
#660000
0#
b100010 $
#670000
0-
b100 !
b100 &
b100 '
0,
1#
#680000
0#
b100011 $
#690000
1%
b0 !
b0 &
b0 '
0/
1#
#700000
0#
b100100 $
#710000
0%
1*
b1 !
b1 &
b1 '
1)
1#
#720000
0#
b100101 $
#730000
1%
0*
1-
0)
b10 !
b10 &
b10 '
1,
1#
#740000
0#
b100110 $
#750000
0-
1*
1/
0,
b101 !
b101 &
b101 '
1)
1#
#760000
0#
b100111 $
#770000
0%
1-
1,
b11 !
b11 &
b11 '
0/
1#
#780000
0#
b101000 $
#790000
0*
1/
b110 !
b110 &
b110 '
0)
1#
#800000
0#
b101001 $
#810000
0-
b100 !
b100 &
b100 '
0,
1#
#820000
0#
b101010 $
#830000
1%
b0 !
b0 &
b0 '
0/
1#
#840000
0#
b101011 $
#850000
0%
1*
b1 !
b1 &
b1 '
1)
1#
#860000
0#
b101100 $
#870000
1%
1-
0*
1,
b10 !
b10 &
b10 '
0)
1#
#880000
0#
b101101 $
#890000
1*
0-
1)
0,
b101 !
b101 &
b101 '
1/
1#
#900000
0#
b101110 $
#910000
0%
1-
0/
b11 !
b11 &
b11 '
1,
1#
#920000
0#
b101111 $
#930000
0*
0)
b110 !
b110 &
b110 '
1/
1#
#940000
0#
b110000 $
#950000
0-
b100 !
b100 &
b100 '
0,
1#
#960000
0#
b110001 $
#970000
1%
b0 !
b0 &
b0 '
0/
1#
#980000
0#
b110010 $
#990000
0%
1*
b1 !
b1 &
b1 '
1)
1#
#1000000
0#
b110011 $
#1010000
1%
0*
1-
0)
b10 !
b10 &
b10 '
1,
1#
#1020000
0#
b110100 $
#1030000
0-
1*
1/
0,
b101 !
b101 &
b101 '
1)
1#
#1040000
0#
b110101 $
#1050000
0%
1-
1,
b11 !
b11 &
b11 '
0/
1#
#1060000
0#
b110110 $
#1070000
0*
1/
b110 !
b110 &
b110 '
0)
1#
#1080000
0#
b110111 $
#1090000
0-
b100 !
b100 &
b100 '
0,
1#
#1100000
0#
b111000 $
#1110000
1%
b0 !
b0 &
b0 '
0/
1#
#1120000
0#
b111001 $
#1130000
0%
1*
b1 !
b1 &
b1 '
1)
1#
#1140000
0#
b111010 $
#1150000
1%
1-
0*
1,
b10 !
b10 &
b10 '
0)
1#
#1160000
0#
b111011 $
#1170000
1*
0-
1)
0,
b101 !
b101 &
b101 '
1/
1#
#1180000
0#
b111100 $
#1190000
0%
1-
0/
b11 !
b11 &
b11 '
1,
1#
#1200000
0#
b111101 $
#1210000
0*
0)
b110 !
b110 &
b110 '
1/
1#
#1220000
0#
b111110 $
#1230000
0-
b100 !
b100 &
b100 '
0,
1#
#1240000
0#
b111111 $
#1250000
1%
b0 !
b0 &
b0 '
0/
1#
#1260000
0#
b1000000 $
#1270000
0%
1*
b1 !
b1 &
b1 '
1)
1#
#1280000
0#
b1000001 $
#1290000
1%
0*
1-
0)
b10 !
b10 &
b10 '
1,
1#
#1300000
0#
b1000010 $
#1310000
0-
1*
1/
0,
b101 !
b101 &
b101 '
1)
1#
#1320000
0#
b1000011 $
#1330000
0%
1-
1,
b11 !
b11 &
b11 '
0/
1#
#1340000
0#
b1000100 $
#1350000
0*
1/
b110 !
b110 &
b110 '
0)
1#
#1360000
0#
b1000101 $
#1370000
0-
b100 !
b100 &
b100 '
0,
1#
#1380000
0#
b1000110 $
#1390000
1%
b0 !
b0 &
b0 '
0/
1#
#1400000
0#
b1000111 $
#1410000
0%
1*
b1 !
b1 &
b1 '
1)
1#
#1420000
0#
b1001000 $
#1430000
1%
1-
0*
1,
b10 !
b10 &
b10 '
0)
1#
#1440000
0#
b1001001 $
#1450000
1*
0-
1)
0,
b101 !
b101 &
b101 '
1/
1#
#1460000
0#
b1001010 $
#1470000
0%
1-
0/
b11 !
b11 &
b11 '
1,
1#
#1480000
0#
b1001011 $
#1490000
0*
0)
b110 !
b110 &
b110 '
1/
1#
#1500000
0#
b1001100 $
#1510000
0-
b100 !
b100 &
b100 '
0,
1#
#1520000
0#
b1001101 $
#1530000
1%
b0 !
b0 &
b0 '
0/
1#
#1540000
0#
b1001110 $
#1550000
0%
1*
b1 !
b1 &
b1 '
1)
1#
#1560000
0#
b1001111 $
#1570000
1%
0*
1-
0)
b10 !
b10 &
b10 '
1,
1#
#1580000
0#
b1010000 $
#1590000
0-
1*
1/
0,
b101 !
b101 &
b101 '
1)
1#
#1600000
0#
b1010001 $
#1610000
0%
1-
1,
b11 !
b11 &
b11 '
0/
1#
#1620000
0#
b1010010 $
#1630000
0*
1/
b110 !
b110 &
b110 '
0)
1#
#1640000
0#
b1010011 $
#1650000
0-
b100 !
b100 &
b100 '
0,
1#
#1660000
0#
b1010100 $
#1670000
1%
b0 !
b0 &
b0 '
0/
1#
#1680000
0#
b1010101 $
#1690000
0%
1*
b1 !
b1 &
b1 '
1)
1#
#1700000
0#
b1010110 $
#1710000
1%
1-
0*
1,
b10 !
b10 &
b10 '
0)
1#
#1720000
0#
b1010111 $
#1730000
1*
0-
1)
0,
b101 !
b101 &
b101 '
1/
1#
#1740000
0#
b1011000 $
#1750000
0%
1-
0/
b11 !
b11 &
b11 '
1,
1#
#1760000
0#
b1011001 $
#1770000
0*
0)
b110 !
b110 &
b110 '
1/
1#
#1780000
0#
b1011010 $
#1790000
0-
b100 !
b100 &
b100 '
0,
1#
#1800000
0#
b1011011 $
#1810000
1%
b0 !
b0 &
b0 '
0/
1#
#1820000
0#
b1011100 $
#1830000
0%
1*
b1 !
b1 &
b1 '
1)
1#
#1840000
0#
b1011101 $
#1850000
1%
0*
1-
0)
b10 !
b10 &
b10 '
1,
1#
#1860000
0#
b1011110 $
#1870000
0-
1*
1/
0,
b101 !
b101 &
b101 '
1)
1#
#1880000
0#
b1011111 $
#1890000
0%
1-
1,
b11 !
b11 &
b11 '
0/
1#
#1900000
0#
b1100000 $
#1910000
0*
1/
b110 !
b110 &
b110 '
0)
1#
#1920000
0#
b1100001 $
#1930000
0-
b100 !
b100 &
b100 '
0,
1#
#1940000
0#
b1100010 $
#1950000
1%
b0 !
b0 &
b0 '
0/
1#
#1960000
0#
b1100011 $
#1970000
0%
1*
b1 !
b1 &
b1 '
1)
1#
#1980000
0#
b1100100 $
